Properties
===========
1 - View Property. ////////////////////////////////////////////////////
2 - Add Images.
3 - Wizard.
4 - Buttons.
====================================================================================================================================
Customers
==========
1 - Wizard.
2 - Edit.
3 - Transitions.
=====================================================================================================================================
Settings
=========
